{"resources":[{"id":77,"title":"athul","category":"Notes","subject":{"id":14,"name":"bornnvoyage","code":"18batvao","scheme":"CBC 2022"},"module_number":5,"uploaded_by":{"id":1,"username":"admin","full_name":""},"is_approved":false,"file_size_mb":0.06,"download_count":0,"like_count":0,"created_at":"2025-08-07T19:09:09.241033+00:00","file_url":"/media/academics/notes/2022/semester_1/EEE/18batvao/module_5/eee_final_lnhamd"},{"id":76,"title":"thumban","category":"Notes","subject":{"id":14,"name":"bornnvoyage","code":"18batvao","scheme":"CBC 2022"},"module_number":0,"uploaded_by":{"id":1,"username":"admin","full_name":""},"is_approved":true,"file_size_mb":0.06,"download_count":0,"like_count":0,"created_at":"2025-08-07T19:06:25.377951+00:00","file_url":"/media/academics/notes/2022/semester_1/EEE/18batvao/eee_final_lnhamd"},{"id":71,"title":"ajeysier","category":"Notes","subject":{"id":1,"name":"Engineering Mathematics I","code":"18MAT11","scheme":"Scheme 2018"},"module_number":0,"uploaded_by":{"id":8,"username":"bajil","full_name":""},"is_approved":false,"file_size_mb":0.02,"download_count":0,"like_count":0,"created_at":"2025-08-07T13:06:27.456342+00:00","file_url":"/media/academics/notes/2018/semester_1/EEE/18MAT11/d2_red_out_s3"},{"id":68,"title":"Test Textbook 8 - 18EE33","category":"Textbooks","subject":{"id":3,"name":"Electrical Circuits","code":"18EE33","scheme":"Scheme 2018"},"module_number":0,"uploaded_by":{"id":7,"username":"bob_wilson","full_name":"Bob Wilson"},"is_approved":true,"file_size_mb":0,"download_count":96,"like_count":0,"created_at":"2025-08-03T11:43:09.741092+00:00","file_url":null},{"id":67,"title":"Test Textbook 7 - 18EE42","category":"Textbooks","subject":{"id":4,"name":"Power Electronics","code":"18EE42","scheme":"Scheme 2018"},"module_number":0,"uploaded_by":{"id":4,"username":"john_doe","full_name":"John Doe"},"is_approved":true,"file_size_mb":0,"download_count":13,"like_count":0,"created_at":"2025-08-03T11:43:09.740550+00:00","file_url":null},{"id":66,"title":"Test Notes 6 - 18EE33","category":"Notes","subject":{"id":3,"name":"Electrical Circuits","code":"18EE33","scheme":"Scheme 2018"},"module_number":4,"uploaded_by":{"id":4,"username":"john_doe","full_name":"John Doe"},"is_approved":false,"file_size_mb":0,"download_count":46,"like_count":0,"created_at":"2025-08-03T11:43:09.740048+00:00","file_url":null},{"id":65,"title":"Test Notes 5 - 18MAT11","category":"Notes","subject":{"id":1,"name":"Engineering Mathematics I","code":"18MAT11","scheme":"Scheme 2018"},"module_number":4,"uploaded_by":{"id":6,"username":"alice_johnson","full_name":"Alice Johnson"},"is_approved":true,"file_size_mb":0,"download_count":17,"like_count":0,"created_at":"2025-08-03T11:43:09.739381+00:00","file_url":null},{"id":64,"title":"Test Pyq 4 - 18EE33","category":"Previous Year Questions","subject":{"id":3,"name":"Electrical Circuits","code":"18EE33","scheme":"Scheme 2018"},"module_number":0,"uploaded_by":{"id":6,"username":"alice_johnson","full_name":"Alice Johnson"},"is_approved":true,"file_size_mb":0,"download_count":38,"like_count":0,"created_at":"2025-08-03T11:43:09.738759+00:00","file_url":null},{"id":63,"title":"Test Notes 3 - 22EE33","category":"Notes","subject":{"id":7,"name":"Electrical Circuits","code":"22EE33","scheme":"CBC 2022"},"module_number":2,"uploaded_by":{"id":4,"username":"john_doe","full_name":"John Doe"},"is_approved":true,"file_size_mb":0,"download_count":26,"like_count":0,"created_at":"2025-08-03T11:43:09.738104+00:00","file_url":null},{"id":62,"title":"Test Textbook 2 - 22MAT11","category":"Textbooks","subject":{"id":5,"name":"Engineering Mathematics I","code":"22MAT11","scheme":"CBC 2022"},"module_number":0,"uploaded_by":{"id":4,"username":"john_doe","full_name":"John Doe"},"is_approved":true,"file_size_mb":0.02,"download_count":79,"like_count":0,"created_at":"2025-08-03T11:43:09.737455+00:00","file_url":"/media/academics/textbook/2022/semester_1/EEE/22MAT11/d2_red_out_s3"},{"id":61,"title":"Test Notes 1 - 18PHY12","category":"Notes","subject":{"id":2,"name":"Engineering Physics nine","code":"18PHY12","scheme":"Scheme 2018"},"module_number":5,"uploaded_by":{"id":5,"username":"jane_smith","full_name":"Jane Smith"},"is_approved":true,"file_size_mb":0,"download_count":48,"like_count":0,"created_at":"2025-08-03T11:43:09.736239+00:00","file_url":null},{"id":60,"title":"Test Textbook 10 - 18EE42","category":"Textbooks","subject":{"id":4,"name":"Power Electronics","code":"18EE42","scheme":"Scheme 2018"},"module_number":0,"uploaded_by":{"id":5,"username":"jane_smith","full_name":"Jane Smith"},"is_approved":true,"file_size_mb":0,"download_count":87,"like_count":0,"created_at":"2025-08-03T11:42:38.249717+00:00","file_url":null},{"id":58,"title":"Test Notes 8 - 22EE42","category":"Notes","subject":{"id":8,"name":"Power Electronics","code":"22EE42","scheme":"CBC 2022"},"module_number":1,"uploaded_by":{"id":6,"username":"alice_johnson","full_name":"Alice Johnson"},"is_approved":true,"file_size_mb":0,"download_count":36,"like_count":0,"created_at":"2025-08-03T11:42:38.248816+00:00","file_url":null},{"id":57,"title":"Test Textbook 7 - 22PHY12","category":"Textbooks","subject":{"id":6,"name":"Engineering Physics 3","code":"22PHY12","scheme":"CBC 2022"},"module_number":0,"uploaded_by":{"id":7,"username":"bob_wilson","full_name":"Bob Wilson"},"is_approved":true,"file_size_mb":0,"download_count":18,"like_count":0,"created_at":"2025-08-03T11:42:38.248315+00:00","file_url":null},{"id":56,"title":"Test Pyq 6 - 22MAT11","category":"Previous Year Questions","subject":{"id":5,"name":"Engineering Mathematics I","code":"22MAT11","scheme":"CBC 2022"},"module_number":0,"uploaded_by":{"id":7,"username":"bob_wilson","full_name":"Bob Wilson"},"is_approved":true,"file_size_mb":0,"download_count":78,"like_count":0,"created_at":"2025-08-03T11:42:38.247796+00:00","file_url":null},{"id":55,"title":"Test Textbook 5 - 22EE33","category":"Textbooks","subject":{"id":7,"name":"Electrical Circuits","code":"22EE33","scheme":"CBC 2022"},"module_number":0,"uploaded_by":{"id":6,"username":"alice_johnson","full_name":"Alice Johnson"},"is_approved":true,"file_size_mb":0,"download_count":49,"like_count":0,"created_at":"2025-08-03T11:42:38.247210+00:00","file_url":null},{"id":54,"title":"Test Notes 4 - 18MAT11","category":"Notes","subject":{"id":1,"name":"Engineering Mathematics I","code":"18MAT11","scheme":"Scheme 2018"},"module_number":2,"uploaded_by":{"id":5,"username":"jane_smith","full_name":"Jane Smith"},"is_approved":true,"file_size_mb":0,"download_count":97,"like_count":0,"created_at":"2025-08-03T11:42:38.246687+00:00","file_url":null},{"id":53,"title":"Test Textbook 3 - 22EE33","category":"Textbooks","subject":{"id":7,"name":"Electrical Circuits","code":"22EE33","scheme":"CBC 2022"},"module_number":0,"uploaded_by":{"id":4,"username":"john_doe","full_name":"John Doe"},"is_approved":true,"file_size_mb":0,"download_count":59,"like_count":0,"created_at":"2025-08-03T11:42:38.246014+00:00","file_url":null},{"id":52,"title":"Test Textbook 2 - 18EE33","category":"Textbooks","subject":{"id":3,"name":"Electrical Circuits","code":"18EE33","scheme":"Scheme 2018"},"module_number":0,"uploaded_by":{"id":4,"username":"john_doe","full_name":"John Doe"},"is_approved":true,"file_size_mb":0,"download_count":38,"like_count":0,"created_at":"2025-08-03T11:42:38.245446+00:00","file_url":null},{"id":51,"title":"Test Pyq 1 - 18PHY12","category":"Previous Year Questions","subject":{"id":2,"name":"Engineering Physics nine","code":"18PHY12","scheme":"Scheme 2018"},"module_number":0,"uploaded_by":{"id":4,"username":"john_doe","full_name":"John Doe"},"is_approved":true,"file_size_mb":0,"download_count":50,"like_count":0,"created_at":"2025-08-03T11:42:38.244133+00:00","file_url":null}],"pagination":{"total_count":69,"page":1,"page_size":20,"total_pages":4},"filters":{"categories":{"notes":"Notes","textbook":"Textbooks","pyq":"Previous Year Questions","regulations":"Regulations","syllabus":"Syllabus"}}}